4 Data Vizualization | Data Wrangling and Visualization Guide
…
library(nycflights13)

nycflights13 contains a variety of data sets pertaining to flights departing New York City in 2013.4 The code chunk below shows the three most prominent ones.

flights

## # A tibble: 336,776 × 19
##     year month   day dep_time sched_dep_time dep_delay arr_time sched_arr_time
##    <int> <int> <int>    <int>          <int>     <dbl>    <int>          <int>
##  1  2013     1     1      517            515         2      830            819
##  2  2013     1     1      533            529         4      850            830
##  3  2013     1     1      542            540         2      923            850
##  4  2013     1     1      544            545        -1     1004           1022
##  5  2013     1     1      554            600        -6      812            837
##  6  2013     1     1      554            558        -4      740            728
##  7  2013     1     1      555            600        -5      913            854
##  8  2013     1     1      557            600        -3      709            723
##  9  2013     1     1      557            600        -3      838            846
## 10  2013     1     1      558            600        -2      753            745
## # ℹ 336,766 more rows
## # ℹ 11 more variables: arr_delay <dbl>, carrier <chr>, flight <int>,
## #   tailnum <chr>, origin <chr>, dest <chr>, air_time <dbl>, distance <dbl>,
## #   hour <dbl>, minute <dbl>, time_hour <dttm>

weather

## # A tibble: 26,115 × 15
##    origin  year month   day  hour  temp  dewp humid wind_dir wind_speed
##    <chr>  <int> <int> <int> <int> <dbl> <dbl> <dbl>    <dbl>      <dbl>
##  1 EWR     2013     1     1     1  39.0  26.1  59.4      270      10.4 
##  2 EWR     2013     1     1     2  39.0  27.0  61.6      250       8.06
##  3 EWR     2013     1     1     3  39.0  28.0  64.4      240      11.5 
##  4 EWR     2013     1     1     4  39.9  28.0  62.2      250      12.7 
##  5 EWR     2013     1     1     5  39.0  28.0  64.4      260      12.7 
##  6 EWR     2013     1     1     6  37.9  28.0  67.2      240      11.5 
##  7 EWR     2013     1     1     7  39.0  28.0  64.4      240      15.0 
##  8 EWR     2013     1     1     8  39.9  28.0  62.2      250      10.4 
##  9 EWR     2013     1     1     9  39.9  28.0  62.2      260      15.0 
## 10 EWR     2013     1     1    10  41    28.0  59.6      260      13.8 
## # ℹ 26,105 more rows
## # ℹ 5 more variables: wind_gust <dbl>, precip <dbl>, pressure <dbl>,
## #   visib <dbl>, time_hour <dttm>

planes

## # A tibble: 3,322 × 9
##    tailnum  year type              manufacturer model engines seats speed engine
##    <chr>   <int> <chr>             <chr>        <chr>   <int> <int> <int> <chr> 
##  1 N10156   2004 Fixed wing multi… EMBRAER      EMB-…       2    55    NA Turbo…
##  2 N102UW   1998 Fixed wing multi… AIRBUS INDU… A320…       2   182    NA Turbo…
##  3 N103US   1999 Fixed wing multi… AIRBUS INDU… A320…       2   182    NA Turbo…
##  4 N104UW   1999 Fixed wing multi… AIRBUS INDU… A320…       2   182    NA Turbo…
##  5 N10575   2002 Fixed wing multi… EMBRAER      EMB-…       2    55    NA Turbo…
##  6 N105UW   1999 Fixed wing multi… AIRBUS INDU… A320…       2   182    NA Turbo…
##  7 N107US   1999 Fixed wing multi… AIRBUS INDU… A320…       2   182    NA Turbo…
##  8 N108UW   1999 Fixed wing multi… AIRBUS INDU… A320…       2   182    NA Turbo…
##  9 N109UW   1999 Fixed wing multi… AIRBUS INDU… A320…       2   182    NA Turbo…
## 10 N110UW   1999 Fixed wing multi… AIRBUS INDU… A320…       2   182    NA Turbo…
## # ℹ 3,312 more rows

ggplot2 includes sample data sets provided within the package as well. These data sets are displayed in the code chunk below.

diamonds

## # A tibble: 53,940 × 10
##    carat cut       color clarity depth table price     x     y     z
##    <dbl> <ord>     <ord> <ord>   <dbl> <dbl> <int> <dbl> <dbl> <dbl>
##  1  0.23 Ideal     E     SI2      61.5    55   326  3.95  3.98  2.43
##  2  0.21 Premium   E     SI1      59.8    61   326  3.89  3.84  2.31
##  3  0.23 Good      E     VS1      56.9    65   327  4.05  4.07  2.31
##  4  0.29 Premium   I     VS2      62.4    58   334  4.2   4.23  2.63
##  5  0.31 Good      J     SI2      63.3    58   335  4.34  4.35  2.75
##  6  0.24 Very Good J     VVS2     62.8    57   336  3.94  3.96  2.48
##  7  0.24 Very Good I     VVS1     62.3    57   336  3.95  3.98  2.47
##  8  0.26 Very Good H     SI1      61.9    55   337  4.07  4.11  2.53
##  9  0.22 Fair      E     VS2      65.1    61   337  3.87  3.78  2.49
## 10  0.23 Very Good H     VS1      59.4    61   338  4     4.05  2.39
## # ℹ 53,930 more rows

mpg

## # A tibble: 234 × 11
##    manufacturer model      displ  year   cyl trans drv     cty   hwy fl    class
##    <chr>        <chr>      <dbl> <int> <int> <chr> <chr> <int> <int> <chr> <chr>
##  1 audi         a4           1.8  1999     4 auto… f        18    29 p     comp…
##  2 audi         a4           1.8  1999     4 manu… f        21    29 p     comp…
##  3 audi         a4           2    2008     4 manu… f        20    31 p     comp…
##  4 audi         a4           2    2008     4 auto… f        21    30 p     comp…
##  5 audi         a4           2.8  1999     6 auto… f        16    26 p     comp…
##  6 audi         a4           2.8  1999     6 manu… f        18    26 p     comp…
##  7 audi         a4           3.1  2008     6 auto… f        18    27 p     comp…
##  8 audi         a4 quattro   1.8  1999     4 manu… 4        18    26 p     comp…
##  9 audi         a4 quattro   1.8  1999     4 auto… 4        16    25 p     comp…
## 10 audi         a4 quattro   2    2008     4 manu… 4        20    28 p     comp…
## # ℹ 224 more rows

economics

## # A tibble: 574 × 6
##    date         pce    pop psavert uempmed unemploy
##    <date>     <dbl>  <dbl>   <dbl>   <dbl>    <dbl>
##  1 1967-07-01  507. 198712    12.6     4.5     2944
##  2 1967-08-01  510. 198911    12.6     4.7     2945
##  3 1967-09-01  516. 199113    11.9     4.6     2958
##  4 1967-10-01  512. 199311    12.9     4.9     3143
##  5 1967-11-01  517. 199498    12.8     4.7     3066
##  6 1967-12-01  525. 199657    11.8     4.8     3018
##  7 1968-01-01  531. 199808    11.7     5.1     2878
##  8 1968-02-01  534. 199920    12.3     4.5     3001
##  9 1968-03-01  544. 200056    11.7     4.1     2877
## 10 1968-04-01  544  200208    12.3     4.6     2709
## # ℹ 564 more rows
…
4.5.1 Filtering

This may seem a little obvious, but a common and useful solution is to simply plot less data through filtering. Filtering data is covered in this section. In the Line Graphs section example, I use filtering to select only flights in January 2013. Piping is an important tool with these types of problems. Piping allows you to take a data frame, pipe it through any modifiers to wrangle it into the desired form, and then pipe the result straight into ggplot(). This removes the intermediary step of saving a modified version of your data before you create a new graph. If you are using the modified data multiple times, it is worth it to save it so you do not have to repeat code. An important part of data science is having a focused question. While looking at a very large data set in a meaningful way can be very important, when working with large data always ask yourself if you need all the data you have to answer your question.

4.5.2 xlim() and ylim()

Another way to limit the scope of a visualization is to modify the axes. This can be useful when talking about a specific feature of the data and can also be done through filtering.

For this example, I will use data from nycflights13. The code chunk below demonstrates the process of combining the seats variable from the planes data frame with the flights data frame. Refer to the chapter 2 for more information on the specifics of this.

(flight_size <- flights |> # notice I selected the key (tailnum) and desired var (seats) from planes to join
  left_join(planes |> select(tailnum, seats), by = "tailnum")) |> # this prevents unwanted data in the new data frame
  select(month, day, distance, dep_delay, seats) # select only variable I will use in visualization

## # A tibble: 336,776 × 5
##    month   day distance dep_delay seats
##    <int> <int>    <dbl>     <dbl> <int>
##  1     1     1     1400         2   149
##  2     1     1     1416         4   149
##  3     1     1     1089         2   178
##  4     1     1     1576        -1   200
##  5     1     1      762        -6   178
##  6     1     1      719        -4   191
##  7     1     1     1065        -5   200
##  8     1     1      229        -3    55
##  9     1     1      944        -3   200
## 10     1     1      733        -2    NA
## # ℹ 336,766 more rows
…
This example also demonstrates how to modify visualizations after they are saved within R. In this example, I call example1 above and use + labs() to modify titles.

4.7 Plotting Time Series

This section covers the unique difficulties of properly plotting time series data. Time series data is any data that has a sequence through time. For this section we will use the economics data set included with ggplot2. This data set is presented in the code chunk below. When dealing with time series data the first important feature of the data set to identify is the time interval between observations. In our example, observations are taken on a monthly basis. The second important feature of a time series to identify is the span of the data in question. These data span from January of 1967 to April of 2015.

economics

## # A tibble: 574 × 6
##    date         pce    pop psavert uempmed unemploy
##    <date>     <dbl>  <dbl>   <dbl>   <dbl>    <dbl>
##  1 1967-07-01  507. 198712    12.6     4.5     2944
##  2 1967-08-01  510. 198911    12.6     4.7     2945
##  3 1967-09-01  516. 199113    11.9     4.6     2958
##  4 1967-10-01  512. 199311    12.9     4.9     3143
##  5 1967-11-01  517. 199498    12.8     4.7     3066
##  6 1967-12-01  525. 199657    11.8     4.8     3018
##  7 1968-01-01  531. 199808    11.7     5.1     2878
##  8 1968-02-01  534. 199920    12.3     4.5     3001
##  9 1968-03-01  544. 200056    11.7     4.1     2877
## 10 1968-04-01  544  200208    12.3     4.6     2709
## # ℹ 564 more rows
…
