3 Data | Data Wrangling Basic Guide
…
Most often data you encounter will be available in the .csv format (comma-separated-values). The readr package in the tidyverse provides a very useful function, read_csv() for reading .csv files. An example of how to use the read_csv() function is given in the chunk below:

(data <- read_csv(here("sample.csv")))

## Rows: 156 Columns: 2
## ── Column specification ────────────────────────────────────────────────────────
## Delimiter: ","
## chr (1): Date
## dbl (1): Sales
## 
## ℹ Use `spec()` to retrieve the full column specification for this data.
## ℹ Specify the column types or set `show_col_types = FALSE` to quiet this message.

## # A tibble: 156 × 2
##    Date   Sales
##    <chr>  <dbl>
##  1 Jan-92  1519
##  2 Feb-92  1551
##  3 Mar-92  1606
##  4 Apr-92  1686
##  5 May-92  1834
##  6 Jun-92  1786
##  7 Jul-92  1924
##  8 Aug-92  1874
##  9 Sep-92  1781
## 10 Oct-92  1894
## # ℹ 146 more rows

# this reads a csv detailing monthly liquor sales data

3.2.2 Microsoft Excel Files

Excel has changed the way they save their files over time leading to a variety of way that excel files can be read. One important thing to note is excel files can always be saved as .csv files and read that way. If you want to directly read the excel file, the readxl package offers the ability to read an excel file directly into a data frame through the read_excel(file_name) function. The code chunk below shows an example of how to do this. Note: to just use the file name the file must be in the project folder. Otherwise, you need to change the working directory to the folder with the file or to use the complete file path.

library(readxl)
read_excel("sample.xlsx")

## # A tibble: 156 × 2
##    Date                Sales
##    <dttm>              <dbl>
##  1 1992-01-01 00:00:00  1519
##  2 1992-02-01 00:00:00  1551
##  3 1992-03-01 00:00:00  1606
##  4 1992-04-01 00:00:00  1686
##  5 1992-05-01 00:00:00  1834
##  6 1992-06-01 00:00:00  1786
##  7 1992-07-01 00:00:00  1924
##  8 1992-08-01 00:00:00  1874
##  9 1992-09-01 00:00:00  1781
## 10 1992-10-01 00:00:00  1894
## # ℹ 146 more rows
…
the entire data set is far too large to download, so you must use parameters to download smaller subsets

the use of this function is covered in the section below covering retrieving variables

The load_variables() function returns a tibble with three variables:

name: the variable code

label: a description of the variable

concpet: a broader categorization

load_variables(year = 2021, dataset = "acs1")

## # A tibble: 36,400 × 3
##    name        label                                    concept                 
##    <chr>       <chr>                                    <chr>                   
##  1 B01001A_001 Estimate!!Total:                         SEX BY AGE (WHITE ALONE)
##  2 B01001A_002 Estimate!!Total:!!Male:                  SEX BY AGE (WHITE ALONE)
##  3 B01001A_003 Estimate!!Total:!!Male:!!Under 5 years   SEX BY AGE (WHITE ALONE)
##  4 B01001A_004 Estimate!!Total:!!Male:!!5 to 9 years    SEX BY AGE (WHITE ALONE)
##  5 B01001A_005 Estimate!!Total:!!Male:!!10 to 14 years  SEX BY AGE (WHITE ALONE)
##  6 B01001A_006 Estimate!!Total:!!Male:!!15 to 17 years  SEX BY AGE (WHITE ALONE)
##  7 B01001A_007 Estimate!!Total:!!Male:!!18 and 19 years SEX BY AGE (WHITE ALONE)
##  8 B01001A_008 Estimate!!Total:!!Male:!!20 to 24 years  SEX BY AGE (WHITE ALONE)
##  9 B01001A_009 Estimate!!Total:!!Male:!!25 to 29 years  SEX BY AGE (WHITE ALONE)
## 10 B01001A_010 Estimate!!Total:!!Male:!!30 to 34 years  SEX BY AGE (WHITE ALONE)
## # ℹ 36,390 more rows
…
breakdown = allows you to break down the variables by different categories

the options are "AGEGROUP", "RACE", "SEX", or "HISP"

when using breakdown = it is best to set breakdown_labels = TRUE so the breakdown differences are included

In the code chunk below I demonstrate how to create a variable vector and retrieve the variables with the get_acs() function.

variables <- c("B19127_001", "B19128_001") # can put any number of variables in this vector
get_acs(geography = "state", variables = variables, year = 2019, survey = "acs5")

## Getting data from the 2015-2019 5-year ACS

## # A tibble: 104 × 5
##    GEOID NAME       variable        estimate        moe
##    <chr> <chr>      <chr>              <dbl>      <dbl>
##  1 01    Alabama    B19127_001  102982409300  879205123
##  2 01    Alabama    B19128_001  102982409300  879205123
##  3 02    Alaska     B19127_001   18581368800  269773707
##  4 02    Alaska     B19128_001   18581368800  269773707
##  5 04    Arizona    B19127_001  156168474600 1121346222
##  6 04    Arizona    B19128_001  156168474600 1121346222
##  7 05    Arkansas   B19127_001   60572614900  639431293
##  8 05    Arkansas   B19128_001   60572614900  639431293
##  9 06    California B19127_001 1067179516100 5956392631
## 10 06    California B19128_001 1067179516100 5956392631
## # ℹ 94 more rows
…
